{
  "resource": "Places",
  "http_method": "GET",
  "route": "/api/v1/places",
  "description": "Get All Places",
  "explanation": null,
  "parameters": [
    {
      "name": "page",
      "description": "Page Number"
    },
    {
      "name": "name",
      "description": "Search place by name"
    },
    {
      "name": "level",
      "description": "Search place by level"
    }
  ],
  "response_fields": [

  ],
  "requests": [
    {
      "request_method": "GET",
      "request_path": "/api/v1/places?write_key=69259e42f47902ddb7fe53e618775cf0",
      "request_body": null,
      "request_headers": {
        "Host": "example.org",
        "Cookie": ""
      },
      "request_query_parameters": {
        "write_key": "69259e42f47902ddb7fe53e618775cf0"
      },
      "request_content_type": null,
      "response_status": 200,
      "response_status_text": "OK",
      "response_body": "{\n  \"data\": [\n    {\n      \"id\": 37,\n      \"name\": \"United States\",\n      \"slug\": \"united-states\",\n      \"short\": \"US\",\n      \"level\": \"country\",\n      \"parent_id\": null,\n      \"latitude\": null,\n      \"longitude\": null,\n      \"created_at\": \"2017-03-21T02:58:46Z\",\n      \"updated_at\": \"2017-03-21T02:58:46Z\"\n    },\n    {\n      \"id\": 38,\n      \"name\": \"Northeast\",\n      \"slug\": \"northeast-us\",\n      \"short\": null,\n      \"level\": \"region\",\n      \"parent_id\": 37,\n      \"latitude\": null,\n      \"longitude\": null,\n      \"created_at\": \"2017-03-21T02:58:46Z\",\n      \"updated_at\": \"2017-03-21T02:58:46Z\"\n    },\n    {\n      \"id\": 39,\n      \"name\": \"Midwest\",\n      \"slug\": \"midwest-us\",\n      \"short\": null,\n      \"level\": \"region\",\n      \"parent_id\": 37,\n      \"latitude\": null,\n      \"longitude\": null,\n      \"created_at\": \"2017-03-21T02:58:46Z\",\n      \"updated_at\": \"2017-03-21T02:58:46Z\"\n    },\n    {\n      \"id\": 40,\n      \"name\": \"South\",\n      \"slug\": \"south-us\",\n      \"short\": null,\n      \"level\": \"region\",\n      \"parent_id\": 37,\n      \"latitude\": null,\n      \"longitude\": null,\n      \"created_at\": \"2017-03-21T02:58:46Z\",\n      \"updated_at\": \"2017-03-21T02:58:46Z\"\n    },\n    {\n      \"id\": 41,\n      \"name\": \"West\",\n      \"slug\": \"west-us\",\n      \"short\": null,\n      \"level\": \"region\",\n      \"parent_id\": 37,\n      \"latitude\": null,\n      \"longitude\": null,\n      \"created_at\": \"2017-03-21T02:58:46Z\",\n      \"updated_at\": \"2017-03-21T02:58:46Z\"\n    },\n    {\n      \"id\": 42,\n      \"name\": \"New England\",\n      \"slug\": \"new-england-northeast\",\n      \"short\": null,\n      \"level\": \"division\",\n      \"parent_id\": 38,\n      \"latitude\": null,\n      \"longitude\": null,\n      \"created_at\": \"2017-03-21T02:58:46Z\",\n      \"updated_at\": \"2017-03-21T02:58:46Z\"\n    },\n    {\n      \"id\": 43,\n      \"name\": \"Mid-Atlantic\",\n      \"slug\": \"mid-atlantic-northeast\",\n      \"short\": null,\n      \"level\": \"division\",\n      \"parent_id\": 38,\n      \"latitude\": null,\n      \"longitude\": null,\n      \"created_at\": \"2017-03-21T02:58:46Z\",\n      \"updated_at\": \"2017-03-21T02:58:46Z\"\n    },\n    {\n      \"id\": 44,\n      \"name\": \"East North Central\",\n      \"slug\": \"east-north-central-midwest\",\n      \"short\": null,\n      \"level\": \"division\",\n      \"parent_id\": 39,\n      \"latitude\": null,\n      \"longitude\": null,\n      \"created_at\": \"2017-03-21T02:58:46Z\",\n      \"updated_at\": \"2017-03-21T02:58:46Z\"\n    },\n    {\n      \"id\": 45,\n      \"name\": \"West North Central\",\n      \"slug\": \"west-north-central-midwest\",\n      \"short\": null,\n      \"level\": \"division\",\n      \"parent_id\": 39,\n      \"latitude\": null,\n      \"longitude\": null,\n      \"created_at\": \"2017-03-21T02:58:46Z\",\n      \"updated_at\": \"2017-03-21T02:58:46Z\"\n    },\n    {\n      \"id\": 46,\n      \"name\": \"South Atlantic\",\n      \"slug\": \"south-atlantic-south\",\n      \"short\": null,\n      \"level\": \"division\",\n      \"parent_id\": 40,\n      \"latitude\": null,\n      \"longitude\": null,\n      \"created_at\": \"2017-03-21T02:58:46Z\",\n      \"updated_at\": \"2017-03-21T02:58:46Z\"\n    },\n    {\n      \"id\": 47,\n      \"name\": \"East South Central\",\n      \"slug\": \"east-south-central-south\",\n      \"short\": null,\n      \"level\": \"division\",\n      \"parent_id\": 40,\n      \"latitude\": null,\n      \"longitude\": null,\n      \"created_at\": \"2017-03-21T02:58:46Z\",\n      \"updated_at\": \"2017-03-21T02:58:46Z\"\n    },\n    {\n      \"id\": 48,\n      \"name\": \"West South Central\",\n      \"slug\": \"west-south-central-south\",\n      \"short\": null,\n      \"level\": \"division\",\n      \"parent_id\": 40,\n      \"latitude\": null,\n      \"longitude\": null,\n      \"created_at\": \"2017-03-21T02:58:46Z\",\n      \"updated_at\": \"2017-03-21T02:58:46Z\"\n    },\n    {\n      \"id\": 49,\n      \"name\": \"Mountain\",\n      \"slug\": \"mountain-west\",\n      \"short\": null,\n      \"level\": \"division\",\n      \"parent_id\": 41,\n      \"latitude\": null,\n      \"longitude\": null,\n      \"created_at\": \"2017-03-21T02:58:46Z\",\n      \"updated_at\": \"2017-03-21T02:58:46Z\"\n    },\n    {\n      \"id\": 50,\n      \"name\": \"Pacific\",\n      \"slug\": \"pacific-west\",\n      \"short\": null,\n      \"level\": \"division\",\n      \"parent_id\": 41,\n      \"latitude\": null,\n      \"longitude\": null,\n      \"created_at\": \"2017-03-21T02:58:46Z\",\n      \"updated_at\": \"2017-03-21T02:58:46Z\"\n    },\n    {\n      \"id\": 51,\n      \"name\": \"Maine\",\n      \"slug\": \"maine-new-england\",\n      \"short\": \"ME\",\n      \"level\": \"state\",\n      \"parent_id\": 42,\n      \"latitude\": null,\n      \"longitude\": null,\n      \"created_at\": \"2017-03-21T02:58:46Z\",\n      \"updated_at\": \"2017-03-21T02:58:46Z\"\n    },\n    {\n      \"id\": 52,\n      \"name\": \"New Hampshire\",\n      \"slug\": \"new-hampshire-new-england\",\n      \"short\": \"NH\",\n      \"level\": \"state\",\n      \"parent_id\": 42,\n      \"latitude\": null,\n      \"longitude\": null,\n      \"created_at\": \"2017-03-21T02:58:46Z\",\n      \"updated_at\": \"2017-03-21T02:58:46Z\"\n    },\n    {\n      \"id\": 53,\n      \"name\": \"Vermont\",\n      \"slug\": \"vermont-new-england\",\n      \"short\": \"VT\",\n      \"level\": \"state\",\n      \"parent_id\": 42,\n      \"latitude\": null,\n      \"longitude\": null,\n      \"created_at\": \"2017-03-21T02:58:46Z\",\n      \"updated_at\": \"2017-03-21T02:58:46Z\"\n    },\n    {\n      \"id\": 54,\n      \"name\": \"Massachusetts\",\n      \"slug\": \"massachusetts-new-england\",\n      \"short\": \"MA\",\n      \"level\": \"state\",\n      \"parent_id\": 42,\n      \"latitude\": null,\n      \"longitude\": null,\n      \"created_at\": \"2017-03-21T02:58:46Z\",\n      \"updated_at\": \"2017-03-21T02:58:46Z\"\n    },\n    {\n      \"id\": 55,\n      \"name\": \"Rhode Island\",\n      \"slug\": \"rhode-island-new-england\",\n      \"short\": \"RI\",\n      \"level\": \"state\",\n      \"parent_id\": 42,\n      \"latitude\": null,\n      \"longitude\": null,\n      \"created_at\": \"2017-03-21T02:58:46Z\",\n      \"updated_at\": \"2017-03-21T02:58:46Z\"\n    },\n    {\n      \"id\": 56,\n      \"name\": \"Connecticut\",\n      \"slug\": \"connecticut-new-england\",\n      \"short\": \"CT\",\n      \"level\": \"state\",\n      \"parent_id\": 42,\n      \"latitude\": null,\n      \"longitude\": null,\n      \"created_at\": \"2017-03-21T02:58:46Z\",\n      \"updated_at\": \"2017-03-21T02:58:46Z\"\n    },\n    {\n      \"id\": 57,\n      \"name\": \"New York\",\n      \"slug\": \"new-york-mid-atlantic\",\n      \"short\": \"NY\",\n      \"level\": \"state\",\n      \"parent_id\": 43,\n      \"latitude\": null,\n      \"longitude\": null,\n      \"created_at\": \"2017-03-21T02:58:46Z\",\n      \"updated_at\": \"2017-03-21T02:58:46Z\"\n    },\n    {\n      \"id\": 58,\n      \"name\": \"Pennsylvania\",\n      \"slug\": \"pennsylvania-mid-atlantic\",\n      \"short\": \"PA\",\n      \"level\": \"state\",\n      \"parent_id\": 43,\n      \"latitude\": null,\n      \"longitude\": null,\n      \"created_at\": \"2017-03-21T02:58:46Z\",\n      \"updated_at\": \"2017-03-21T02:58:46Z\"\n    },\n    {\n      \"id\": 59,\n      \"name\": \"New Jersey\",\n      \"slug\": \"new-jersey-mid-atlantic\",\n      \"short\": \"NJ\",\n      \"level\": \"state\",\n      \"parent_id\": 43,\n      \"latitude\": null,\n      \"longitude\": null,\n      \"created_at\": \"2017-03-21T02:58:46Z\",\n      \"updated_at\": \"2017-03-21T02:58:46Z\"\n    },\n    {\n      \"id\": 60,\n      \"name\": \"Wisconsin\",\n      \"slug\": \"wisconsin-east-north-central\",\n      \"short\": \"WI\",\n      \"level\": \"state\",\n      \"parent_id\": 44,\n      \"latitude\": null,\n      \"longitude\": null,\n      \"created_at\": \"2017-03-21T02:58:46Z\",\n      \"updated_at\": \"2017-03-21T02:58:46Z\"\n    },\n    {\n      \"id\": 61,\n      \"name\": \"Michigan\",\n      \"slug\": \"michigan-east-north-central\",\n      \"short\": \"MI\",\n      \"level\": \"state\",\n      \"parent_id\": 44,\n      \"latitude\": null,\n      \"longitude\": null,\n      \"created_at\": \"2017-03-21T02:58:46Z\",\n      \"updated_at\": \"2017-03-21T02:58:46Z\"\n    }\n  ],\n  \"meta\": {\n    \"status\": 200,\n    \"pagination\": {\n      \"page\": 1,\n      \"total_pages\": 5,\n      \"count\": 107\n    }\n  }\n}",
      "response_headers": {
        "X-Frame-Options": "SAMEORIGIN",
        "X-XSS-Protection": "1; mode=block",
        "X-Content-Type-Options": "nosniff",
        "Content-Type": "application/json; charset=utf-8",
        "ETag": "W/\"c13028ea9eae4c8fe80fdbd84ce7a3f1\"",
        "Cache-Control": "max-age=0, private, must-revalidate",
        "X-Request-Id": "4048b555-292c-4bd0-8def-710b7ec8952e",
        "X-Runtime": "0.017360",
        "Content-Length": "5359"
      },
      "response_content_type": "application/json; charset=utf-8",
      "curl": null
    }
  ]
}