{
  "resource": "Places",
  "http_method": "GET",
  "route": "/api/v1/places",
  "description": "Search place by level",
  "explanation": null,
  "parameters": [
    {
      "name": "page",
      "description": "Page Number"
    },
    {
      "name": "name",
      "description": "Search place by name"
    },
    {
      "name": "level",
      "description": "Search place by level"
    }
  ],
  "response_fields": [

  ],
  "requests": [
    {
      "request_method": "GET",
      "request_path": "/api/v1/places?write_key=cc8531ecd48b3282222e379567c7adb7&level=state",
      "request_body": null,
      "request_headers": {
        "Host": "example.org",
        "Cookie": ""
      },
      "request_query_parameters": {
        "write_key": "cc8531ecd48b3282222e379567c7adb7",
        "level": "state"
      },
      "request_content_type": null,
      "response_status": 200,
      "response_status_text": "OK",
      "response_body": "{\n  \"data\": [\n    {\n      \"id\": 265,\n      \"name\": \"Maine\",\n      \"slug\": \"maine-new-england\",\n      \"short\": \"ME\",\n      \"level\": \"state\",\n      \"parent_id\": 256,\n      \"latitude\": null,\n      \"longitude\": null,\n      \"created_at\": \"2017-03-28T04:16:36Z\",\n      \"updated_at\": \"2017-03-28T04:16:36Z\"\n    },\n    {\n      \"id\": 266,\n      \"name\": \"New Hampshire\",\n      \"slug\": \"new-hampshire-new-england\",\n      \"short\": \"NH\",\n      \"level\": \"state\",\n      \"parent_id\": 256,\n      \"latitude\": null,\n      \"longitude\": null,\n      \"created_at\": \"2017-03-28T04:16:36Z\",\n      \"updated_at\": \"2017-03-28T04:16:36Z\"\n    },\n    {\n      \"id\": 267,\n      \"name\": \"Vermont\",\n      \"slug\": \"vermont-new-england\",\n      \"short\": \"VT\",\n      \"level\": \"state\",\n      \"parent_id\": 256,\n      \"latitude\": null,\n      \"longitude\": null,\n      \"created_at\": \"2017-03-28T04:16:36Z\",\n      \"updated_at\": \"2017-03-28T04:16:36Z\"\n    },\n    {\n      \"id\": 268,\n      \"name\": \"Massachusetts\",\n      \"slug\": \"massachusetts-new-england\",\n      \"short\": \"MA\",\n      \"level\": \"state\",\n      \"parent_id\": 256,\n      \"latitude\": null,\n      \"longitude\": null,\n      \"created_at\": \"2017-03-28T04:16:36Z\",\n      \"updated_at\": \"2017-03-28T04:16:36Z\"\n    },\n    {\n      \"id\": 269,\n      \"name\": \"Rhode Island\",\n      \"slug\": \"rhode-island-new-england\",\n      \"short\": \"RI\",\n      \"level\": \"state\",\n      \"parent_id\": 256,\n      \"latitude\": null,\n      \"longitude\": null,\n      \"created_at\": \"2017-03-28T04:16:36Z\",\n      \"updated_at\": \"2017-03-28T04:16:36Z\"\n    },\n    {\n      \"id\": 270,\n      \"name\": \"Connecticut\",\n      \"slug\": \"connecticut-new-england\",\n      \"short\": \"CT\",\n      \"level\": \"state\",\n      \"parent_id\": 256,\n      \"latitude\": null,\n      \"longitude\": null,\n      \"created_at\": \"2017-03-28T04:16:36Z\",\n      \"updated_at\": \"2017-03-28T04:16:36Z\"\n    },\n    {\n      \"id\": 271,\n      \"name\": \"New York\",\n      \"slug\": \"new-york-mid-atlantic\",\n      \"short\": \"NY\",\n      \"level\": \"state\",\n      \"parent_id\": 257,\n      \"latitude\": null,\n      \"longitude\": null,\n      \"created_at\": \"2017-03-28T04:16:36Z\",\n      \"updated_at\": \"2017-03-28T04:16:36Z\"\n    },\n    {\n      \"id\": 272,\n      \"name\": \"Pennsylvania\",\n      \"slug\": \"pennsylvania-mid-atlantic\",\n      \"short\": \"PA\",\n      \"level\": \"state\",\n      \"parent_id\": 257,\n      \"latitude\": null,\n      \"longitude\": null,\n      \"created_at\": \"2017-03-28T04:16:36Z\",\n      \"updated_at\": \"2017-03-28T04:16:36Z\"\n    },\n    {\n      \"id\": 273,\n      \"name\": \"New Jersey\",\n      \"slug\": \"new-jersey-mid-atlantic\",\n      \"short\": \"NJ\",\n      \"level\": \"state\",\n      \"parent_id\": 257,\n      \"latitude\": null,\n      \"longitude\": null,\n      \"created_at\": \"2017-03-28T04:16:36Z\",\n      \"updated_at\": \"2017-03-28T04:16:36Z\"\n    },\n    {\n      \"id\": 274,\n      \"name\": \"Wisconsin\",\n      \"slug\": \"wisconsin-east-north-central\",\n      \"short\": \"WI\",\n      \"level\": \"state\",\n      \"parent_id\": 258,\n      \"latitude\": null,\n      \"longitude\": null,\n      \"created_at\": \"2017-03-28T04:16:36Z\",\n      \"updated_at\": \"2017-03-28T04:16:36Z\"\n    },\n    {\n      \"id\": 275,\n      \"name\": \"Michigan\",\n      \"slug\": \"michigan-east-north-central\",\n      \"short\": \"MI\",\n      \"level\": \"state\",\n      \"parent_id\": 258,\n      \"latitude\": null,\n      \"longitude\": null,\n      \"created_at\": \"2017-03-28T04:16:36Z\",\n      \"updated_at\": \"2017-03-28T04:16:36Z\"\n    },\n    {\n      \"id\": 276,\n      \"name\": \"Illinois\",\n      \"slug\": \"illinois-east-north-central\",\n      \"short\": \"IL\",\n      \"level\": \"state\",\n      \"parent_id\": 258,\n      \"latitude\": null,\n      \"longitude\": null,\n      \"created_at\": \"2017-03-28T04:16:36Z\",\n      \"updated_at\": \"2017-03-28T04:16:36Z\"\n    },\n    {\n      \"id\": 277,\n      \"name\": \"Indiana\",\n      \"slug\": \"indiana-east-north-central\",\n      \"short\": \"IN\",\n      \"level\": \"state\",\n      \"parent_id\": 258,\n      \"latitude\": null,\n      \"longitude\": null,\n      \"created_at\": \"2017-03-28T04:16:36Z\",\n      \"updated_at\": \"2017-03-28T04:16:36Z\"\n    },\n    {\n      \"id\": 278,\n      \"name\": \"Ohio\",\n      \"slug\": \"ohio-east-north-central\",\n      \"short\": \"OH\",\n      \"level\": \"state\",\n      \"parent_id\": 258,\n      \"latitude\": null,\n      \"longitude\": null,\n      \"created_at\": \"2017-03-28T04:16:36Z\",\n      \"updated_at\": \"2017-03-28T04:16:36Z\"\n    },\n    {\n      \"id\": 279,\n      \"name\": \"Missouri\",\n      \"slug\": \"missouri-west-north-central\",\n      \"short\": \"MO\",\n      \"level\": \"state\",\n      \"parent_id\": 259,\n      \"latitude\": null,\n      \"longitude\": null,\n      \"created_at\": \"2017-03-28T04:16:36Z\",\n      \"updated_at\": \"2017-03-28T04:16:36Z\"\n    },\n    {\n      \"id\": 280,\n      \"name\": \"North Dakota\",\n      \"slug\": \"north-dakota-west-north-central\",\n      \"short\": \"ND\",\n      \"level\": \"state\",\n      \"parent_id\": 259,\n      \"latitude\": null,\n      \"longitude\": null,\n      \"created_at\": \"2017-03-28T04:16:36Z\",\n      \"updated_at\": \"2017-03-28T04:16:36Z\"\n    },\n    {\n      \"id\": 281,\n      \"name\": \"South Dakota\",\n      \"slug\": \"south-dakota-west-north-central\",\n      \"short\": \"SD\",\n      \"level\": \"state\",\n      \"parent_id\": 259,\n      \"latitude\": null,\n      \"longitude\": null,\n      \"created_at\": \"2017-03-28T04:16:36Z\",\n      \"updated_at\": \"2017-03-28T04:16:36Z\"\n    },\n    {\n      \"id\": 282,\n      \"name\": \"Nebraska\",\n      \"slug\": \"nebraska-west-north-central\",\n      \"short\": \"NE\",\n      \"level\": \"state\",\n      \"parent_id\": 259,\n      \"latitude\": null,\n      \"longitude\": null,\n      \"created_at\": \"2017-03-28T04:16:36Z\",\n      \"updated_at\": \"2017-03-28T04:16:36Z\"\n    },\n    {\n      \"id\": 283,\n      \"name\": \"Kansas\",\n      \"slug\": \"kansas-west-north-central\",\n      \"short\": \"KS\",\n      \"level\": \"state\",\n      \"parent_id\": 259,\n      \"latitude\": null,\n      \"longitude\": null,\n      \"created_at\": \"2017-03-28T04:16:36Z\",\n      \"updated_at\": \"2017-03-28T04:16:36Z\"\n    },\n    {\n      \"id\": 284,\n      \"name\": \"Minnesota\",\n      \"slug\": \"minnesota-west-north-central\",\n      \"short\": \"MN\",\n      \"level\": \"state\",\n      \"parent_id\": 259,\n      \"latitude\": null,\n      \"longitude\": null,\n      \"created_at\": \"2017-03-28T04:16:36Z\",\n      \"updated_at\": \"2017-03-28T04:16:36Z\"\n    },\n    {\n      \"id\": 285,\n      \"name\": \"Iowa\",\n      \"slug\": \"iowa-west-north-central\",\n      \"short\": \"IA\",\n      \"level\": \"state\",\n      \"parent_id\": 259,\n      \"latitude\": null,\n      \"longitude\": null,\n      \"created_at\": \"2017-03-28T04:16:36Z\",\n      \"updated_at\": \"2017-03-28T04:16:36Z\"\n    },\n    {\n      \"id\": 286,\n      \"name\": \"Delaware\",\n      \"slug\": \"delaware-south-atlantic\",\n      \"short\": \"DE\",\n      \"level\": \"state\",\n      \"parent_id\": 260,\n      \"latitude\": null,\n      \"longitude\": null,\n      \"created_at\": \"2017-03-28T04:16:36Z\",\n      \"updated_at\": \"2017-03-28T04:16:36Z\"\n    },\n    {\n      \"id\": 287,\n      \"name\": \"Maryland\",\n      \"slug\": \"maryland-south-atlantic\",\n      \"short\": \"MD\",\n      \"level\": \"state\",\n      \"parent_id\": 260,\n      \"latitude\": null,\n      \"longitude\": null,\n      \"created_at\": \"2017-03-28T04:16:36Z\",\n      \"updated_at\": \"2017-03-28T04:16:36Z\"\n    },\n    {\n      \"id\": 288,\n      \"name\": \"District of Columbia\",\n      \"slug\": \"district-of-columbia-south-atlantic\",\n      \"short\": \"DC\",\n      \"level\": \"state\",\n      \"parent_id\": 260,\n      \"latitude\": null,\n      \"longitude\": null,\n      \"created_at\": \"2017-03-28T04:16:36Z\",\n      \"updated_at\": \"2017-03-28T04:16:36Z\"\n    },\n    {\n      \"id\": 289,\n      \"name\": \"Virginia\",\n      \"slug\": \"virginia-south-atlantic\",\n      \"short\": \"VA\",\n      \"level\": \"state\",\n      \"parent_id\": 260,\n      \"latitude\": null,\n      \"longitude\": null,\n      \"created_at\": \"2017-03-28T04:16:36Z\",\n      \"updated_at\": \"2017-03-28T04:16:36Z\"\n    }\n  ],\n  \"meta\": {\n    \"status\": 200,\n    \"pagination\": {\n      \"page\": 1,\n      \"total_pages\": 3,\n      \"count\": 51\n    }\n  }\n}",
      "response_headers": {
        "X-Frame-Options": "SAMEORIGIN",
        "X-XSS-Protection": "1; mode=block",
        "X-Content-Type-Options": "nosniff",
        "Content-Type": "application/json; charset=utf-8",
        "ETag": "W/\"a9779ee95d158e151dc9fe4c9defac8b\"",
        "Cache-Control": "max-age=0, private, must-revalidate",
        "X-Request-Id": "ebb6d3b8-8385-4ed9-81a5-5a6d90a947f9",
        "X-Runtime": "0.018234",
        "Content-Length": "5467"
      },
      "response_content_type": "application/json; charset=utf-8",
      "curl": null
    }
  ]
}